{
	"startoption": false,
	"consultation": null,
	"annualInflation": 0.014,
	"birthday": "1997-02-27",
	"retirement": null,
	"overallIncome": 1000,
	"lifestyleToday": 800,
	"lifestyleTomorrow": [
		{
			"name": "Wohnen",
			"value": 500,
			"assignment": "DEFAULT"
		}, {
			"name": "Lebenshaltung",
			"value": 300,
			"assignment": "DEFAULT"
		}
	],
	"objectives": [
		{
			"name": "Auto",
			"investmentCapital": 20000,
			"targetDate": "2020-01-01"
		}, {
			"name": "Haus",
			"investmentCapital": 100000,
			"targetDate": "2025-01-01"
		}
	],
	"securitySum": 350,
	"buInsurance": null,
	"capital": {
		"BUFFER": {
			"grossAssets": 5000,
			"annualPvt": "PVT_0"
		},
		"DEPOT": {
			"grossAssets": 10000,
			"annualPvt": "PVT_UP_TO_10"
		},
		"PENSION": {
			"grossAssets": 20000,
			"annualPvt": "PVT_UP_TO_24"
		}
	}
}